<svg width="38" height="3" viewBox="0 0 38 3" fill="none" xmlns="http://www.w3.org/2000/svg">
<g clip-path="url(#clip0_106_6462)">
<rect width="38" height="3" rx="1.5" fill="#E0E0E0"/>
</g>
<defs>
<clipPath id="clip0_106_6462">
<rect width="38" height="3" fill="white"/>
</clipPath>
</defs>
</svg>
