<svg width="26" height="26" viewBox="0 0 26 26" fill="none" xmlns="http://www.w3.org/2000/svg">
<path fill-rule="evenodd" clip-rule="evenodd" d="M19.249 9.08029H23.8327C23.8327 5.39998 21.6275 3.25 17.8912 3.25H8.1075C4.3712 3.25 2.16602 5.39998 2.16602 9.03334V16.9667C2.16602 20.6 4.3712 22.75 8.1075 22.75H17.8912C21.6275 22.75 23.8327 20.6 23.8327 16.9667V16.6287H19.249C17.1217 16.6287 15.3971 14.9473 15.3971 12.8733C15.3971 10.7992 17.1217 9.11784 19.249 9.11784V9.08029ZM19.2498 10.6949H23.0247C23.4714 10.6949 23.8335 11.048 23.8335 11.4835V14.225C23.8283 14.6584 23.4692 15.0086 23.0247 15.0136H19.3365C18.2596 15.0278 17.3178 14.3089 17.0735 13.2861C16.9512 12.6513 17.1229 11.9962 17.5427 11.4964C17.9625 10.9966 18.5873 10.7032 19.2498 10.6949ZM19.4139 13.5773H19.7702C20.2275 13.5773 20.5983 13.2158 20.5983 12.7699C20.5983 12.324 20.2275 11.9625 19.7702 11.9625H19.4139C19.1951 11.96 18.9844 12.0429 18.8289 12.1929C18.6733 12.3428 18.5857 12.5472 18.5857 12.7605C18.5857 13.208 18.9549 13.5721 19.4139 13.5773ZM7.29808 9.08007H13.4129C13.8703 9.08007 14.241 8.71857 14.241 8.27265C14.241 7.82673 13.8703 7.46524 13.4129 7.46524H7.29808C6.84444 7.46521 6.4752 7.82101 6.46993 8.26326C6.4699 8.71073 6.83915 9.07492 7.29808 9.08007Z" fill="white"/>
</svg>
